…
## See also

Other data user interface functions:
[`dcf_data()`](https://DISSC-yale.github.io/dcf/reference/dcf_data.md),
[`dcf_report()`](https://DISSC-yale.github.io/dcf/reference/dcf_report.md)

## Examples

``` r
dcf_variables("dissc-yale/pophive_demo")
#> # A tibble: 47 × 17
#>    name            type      n duplicates missing project_type data_format file 
#>    <chr>           <chr> <int>      <int>   <int> <chr>        <chr>       <chr>
#>  1 epic_all_encou… inte…  7074      21996   20848 bundle       wide        data…
#>  2 epic_covid      inte…  7074      26687   20848 bundle       wide        data…
#>  3 epic_flu        inte…  7074      26676   20848 bundle       wide        data…
#>  4 epic_rsv        inte…  6943      27394   20979 bundle       wide        data…
#>  5 gtrends_rsv_va… float 16744      21685   11178 bundle       wide        data…
#>  6 gtrends_naloxo… float 16744      19454   11178 bundle       wide        data…
#>  7 gtrends_overdo… float 16744      12163   11178 bundle       wide        data…
#>  8 gtrends_rsv     float 16744      14160   11178 bundle       wide        data…
#>  9 wastewater_cov… float 10468      17780   17454 bundle       wide        data…
#> 10 wastewater_flua float  8101      24067   19821 bundle       wide        data…
#> # ℹ 37 more rows
#> # ℹ 9 more variables: short_name <chr>, long_name <chr>,
#> #   short_description <chr>, long_description <chr>, measure_type <chr>,
#> #   unit <chr>, time_resolution <chr>, category <chr>, subcategory <chr>
```
