Download Medicare Disparities Data — dcf_download_cmsmmd • dcf
…
# look at the codebook which defines source files
codebook <- dcf_download_cmsmmd(codebook_only = TRUE)
#> ℹ retrieving codebook
#> ✔ retrieving codebook [107ms]
#> 
codebook
#> # A tibble: 1,537 × 13
#>    File    File.Name Number.of.observations population measure description  year
#>    <chr>   <chr>                      <dbl> <chr>      <chr>   <chr>       <dbl>
#>  1 ""      Mdcr_pmt…                7497844 f          b       medicare r…     2
#>  2 "dual … Dschrg_F…                9424772 f          d       discharge …     2
#>  3 "dual … Dschrg_F…                8122052 f          d       discharge …     2
#>  4 "dual … Dschrg_F…                6318880 f          d       discharge …     2
#>  5 ""      Ipdays_F…                7497844 f          i       inpatient …     2
#>  6 ""      Mortalit…                3944721 f          m       mortality       2
#>  7 "dual … Admsn_Fi…                9425012 f          n       admission …     2
#>  8 "dual … Admsn_Fi…                8122188 f          n       admission …     2
#>  9 "dual … Admsn_Fi…                6319016 f          n       admission …     2
#> 10 "year … Principa…               11686440 f          p       principal …     2
#> # ℹ 1,527 more rows
#> # ℹ 6 more variables: elig <chr>, race_code <chr>, sex_code <chr>,
#> #   adjust <chr>, dual <chr>, url <chr>
…
