Use Data from a Data Collection Project — dcf_data • dcf
…
    Other data user interface functions:
dcf_report(),
dcf_variables()

    Examples

# retrieve the full bundle file that includes the `epic_rsv` measure
bundle <- dcf_data(
  "epic_rsv",
  "dissc-yale/pophive_demo",
  data_format = "tall",
  verbose = FALSE
)
bundle$data
#> # A tibble: 55,889 × 6
#> # Groups:   measure [5]
#>    geography time       measure              value value_scaled source_file     
#>    <chr>     <date>     <chr>                <dbl>        <dbl> <chr>           
#>  1 0         2023-01-01 epic_all_encounters 854874        75.4  data/bundle_tal…
#>  2 0         2023-01-01 epic_rsv              2582        20.5  data/bundle_tal…
#>  3 0         2023-01-08 epic_all_encounters 804025        70.9  data/bundle_tal…
#>  4 0         2023-01-08 epic_rsv              1659        13.2  data/bundle_tal…
#>  5 0         2023-01-15 epic_all_encounters 808560        71.3  data/bundle_tal…
#>  6 0         2023-01-15 epic_rsv              1254         9.94 data/bundle_tal…
#>  7 0         2023-01-22 epic_all_encounters 806785        71.1  data/bundle_tal…
#>  8 0         2023-01-22 epic_rsv              1069         8.47 data/bundle_tal…
#>  9 0         2023-01-29 epic_all_encounters 801378        70.7  data/bundle_tal…
#> 10 0         2023-01-29 epic_rsv               852         6.74 data/bundle_tal…
#> # ℹ 55,879 more rows
…
